HOST
----------------------------------------------------------------------------------
http://cpanel.hostinger.in.th/order/accounts-list


WEBSITE
----------------------------------------------------------------------------------
url:	lamdeeka.meximas.com
pass:	lamdeeka_web2014


DATABASE
----------------------------------------------------------------------------------
db name:		ldk
MySQL username: root
db pass:		sEgT7ir1I3yW


FTP
----------------------------------------------------------------------------------
FTP host		ftp.lamdeeka.meximas.com
FTP IP		31.170.165.251
FTP Port		21
FTP username	u155442036
FTP password	lamdeeka_web2014
Folder to upload files to	public_html
